[
    {
        "label": "Enter Age",
        "key": "age",
        "value": "12",
        "type": "text",
        "validations": {
            "required": "true"
        },
        "controlType": "textbox"
    },
    {
        "label": "Enter Gender",
        "key": "gender",
        "validations": {
            "required": "true"
        },
        "options": [{
                "key": "male",
                "value": "Male"
            },
            {
                "key": "female",
                "value": "Female"
            }
        ],
        "controlType": "dropdown"
    }
]